exercise
…
  . , summarise  
.

Q2.      ?

- group_by    .

mpg %>% mutate(mpg = (cty+hwy)/2) %>% 
    group_by(manufacturer, drv) %>% 
    summarise(drv_mean=mean(mpg))

## `summarise()` has grouped output by 'manufacturer'. You can override using the
## `.groups` argument.

## # A tibble: 22 x 3
## # Groups:   manufacturer [15]
##    manufacturer drv   drv_mean
##    <chr>        <chr>    <dbl>
##  1 audi         4         21.0
##  2 audi         f         23.6
##  3 chevrolet    4         14.4
##  4 chevrolet    f         23.2
##  5 chevrolet    r         17.7
##  6 dodge        4         14.0
##  7 dodge        f         19.1
##  8 ford         4         15.2
##  9 ford         r         18.2
## 10 honda        f         28.5
## # ... with 12 more rows
…
